{
    "grid": [
        [
            "Dead",
            "Dead",
            "Dead",
            "Dead",
            "Dead",
            "Dead",
            "Dead",
            "Dead",
            "Dead",
            "Dead",
            "Dead",
            "Dead",
            "Dead",
            "Dead",
            "Dead",
            "Dead",
            "Dead",
            "Dead",
            "Dead",
            "Dead"
        ],
        [
            "Dead",
            "Dead",
            "Dead",
            "Dead",
            "Dead",
            "Dead",
            "Dead",
            "Dead",
            "Dead",
            "Dead",
            "Dead",
            "Dead",
            "Dead",
            "Dead",
            "Dead",
            "Dead",
            "Dead",
            "Dead",
            "Dead",
            "Dead"
        ],
        [
            "Dead",
            "Dead",
            "Dead",
            "Dead",
            "Dead",
            "Dead",
            "Dead",
            "Dead",
            "Dead",
            "Dead",
            "Dead",
            "Dead",
            "Dead",
            "Dead",
            "Dead",
            "Dead",
            "Dead",
            "Dead",
            "Dead",
            "Dead"
        ],
        [
            "Dead",
            "Dead",
            "Dead",
            "Dead",
            "Dead",
            "Dead",
            "Dead",
            "Dead",
            "Dead",
            "Dead",
            "Dead",
            "Dead",
            "Dead",
            "Dead",
            "Dead",
            "Dead",
            "Dead",
            "Dead",
            "Dead",
            "Dead"
        ],
        [
            "Dead",
            "Dead",
            "Dead",
            "Dead",
            "Dead",
            "Dead",
            "Dead",
            "Dead",
            "Dead",
            "Dead",
            "Dead",
            "Dead",
            "Dead",
            "Dead",
            "Dead",
            "Dead",
            "Dead",
            "Dead",
            "Dead",
            "Dead"
        ],
        [
            "Dead",
            "Dead",
            "Dead",
            "Dead",
            "Alive",
            "Alive",
            "Alive",
            "Alive",
            "Alive",
            "Alive",
            "Dead",
            "Dead",
            "Dead",
            "Dead",
            "Dead",
            "Dead",
            "Dead",
            "Dead",
            "Dead",
            "Dead"
        ],
        [
            "Dead",
            "Dead",
            "Dead",
            "Alive",
            "Dead",
            "Dead",
            "Dead",
            "Dead",
            "Dead",
            "Alive",
            "Dead",
            "Dead",
            "Dead",
            "Dead",
            "Dead",
            "Dead",
            "Dead",
            "Dead",
            "Dead",
            "Dead"
        ],
        [
            "Dead",
            "Dead",
            "Dead",
            "Dead",
            "Dead",
            "Dead",
            "Dead",
            "Dead",
            "Dead",
            "Alive",
            "Dead",
            "Dead",
            "Dead",
            "Dead",
            "Dead",
            "Dead",
            "Dead",
            "Dead",
            "Dead",
            "Dead"
        ],
        [
            "Dead",
            "Dead",
            "Dead",
            "Alive",
            "Dead",
            "Dead",
            "Dead",
            "Dead",
            "Alive",
            "Dead",
            "Dead",
            "Dead",
            "Dead",
            "Dead",
            "Dead",
            "Dead",
            "Dead",
            "Dead",
            "Dead",
            "Dead"
        ],
        [
            "Dead",
            "Dead",
            "Dead",
            "Dead",
            "Dead",
            "Alive",
            "Alive",
            "Dead",
            "Dead",
            "Dead",
            "Dead",
            "Dead",
            "Dead",
            "Dead",
            "Dead",
            "Dead",
            "Dead",
            "Dead",
            "Dead",
            "Dead"
        ],
        [
            "Dead",
            "Dead",
            "Dead",
            "Dead",
            "Dead",
            "Dead",
            "Dead",
            "Dead",
            "Dead",
            "Dead",
            "Dead",
            "Dead",
            "Dead",
            "Dead",
            "Dead",
            "Dead",
            "Dead",
            "Dead",
            "Dead",
            "Dead"
        ],
        [
            "Dead",
            "Dead",
            "Dead",
            "Dead",
            "Dead",
            "Dead",
            "Dead",
            "Dead",
            "Dead",
            "Dead",
            "Dead",
            "Dead",
            "Dead",
            "Dead",
            "Dead",
            "Dead",
            "Dead",
            "Dead",
            "Dead",
            "Dead"
        ],
        [
            "Dead",
            "Dead",
            "Dead",
            "Dead",
            "Dead",
            "Dead",
            "Dead",
            "Dead",
            "Dead",
            "Dead",
            "Dead",
            "Dead",
            "Dead",
            "Dead",
            "Dead",
            "Dead",
            "Dead",
            "Dead",
            "Dead",
            "Dead"
        ],
        [
            "Dead",
            "Dead",
            "Dead",
            "Dead",
            "Dead",
            "Dead",
            "Dead",
            "Dead",
            "Dead",
            "Dead",
            "Dead",
            "Dead",
            "Dead",
            "Dead",
            "Dead",
            "Dead",
            "Dead",
            "Dead",
            "Dead",
            "Dead"
        ],
        [
            "Dead",
            "Dead",
            "Dead",
            "Dead",
            "Dead",
            "Dead",
            "Dead",
            "Dead",
            "Dead",
            "Dead",
            "Dead",
            "Dead",
            "Dead",
            "Dead",
            "Dead",
            "Dead",
            "Dead",
            "Dead",
            "Dead",
            "Dead"
        ],
        [
            "Dead",
            "Dead",
            "Dead",
            "Dead",
            "Dead",
            "Dead",
            "Dead",
            "Dead",
            "Dead",
            "Dead",
            "Dead",
            "Dead",
            "Dead",
            "Dead",
            "Dead",
            "Dead",
            "Dead",
            "Dead",
            "Dead",
            "Dead"
        ],
        [
            "Dead",
            "Dead",
            "Dead",
            "Dead",
            "Dead",
            "Dead",
            "Dead",
            "Dead",
            "Dead",
            "Dead",
            "Dead",
            "Dead",
            "Dead",
            "Dead",
            "Dead",
            "Dead",
            "Dead",
            "Dead",
            "Dead",
            "Dead"
        ],
        [
            "Dead",
            "Dead",
            "Dead",
            "Dead",
            "Dead",
            "Dead",
            "Dead",
            "Dead",
            "Dead",
            "Dead",
            "Dead",
            "Dead",
            "Dead",
            "Dead",
            "Dead",
            "Dead",
            "Dead",
            "Dead",
            "Dead",
            "Dead"
        ],
        [
            "Dead",
            "Dead",
            "Dead",
            "Dead",
            "Dead",
            "Dead",
            "Dead",
            "Dead",
            "Dead",
            "Dead",
            "Dead",
            "Dead",
            "Dead",
            "Dead",
            "Dead",
            "Dead",
            "Dead",
            "Dead",
            "Dead",
            "Dead"
        ],
        [
            "Dead",
            "Dead",
            "Dead",
            "Dead",
            "Dead",
            "Dead",
            "Dead",
            "Dead",
            "Dead",
            "Dead",
            "Dead",
            "Dead",
            "Dead",
            "Dead",
            "Dead",
            "Dead",
            "Dead",
            "Dead",
            "Dead",
            "Dead"
        ]
    ],
    "speedInMs": 500
}